// WARNING: This file is machine generated by fidlgen.

// fidl_experiment = output_index_json

#![warn(clippy::all)]
#![allow(unused_parens, unused_mut, unused_imports, nonstandard_style)]

use bitflags::bitflags;
use fidl::encoding::{MessageBufFor, ProxyChannelBox, ResourceDialect};
use futures::future::{self, MaybeDone, TryFutureExt};
use zx_status;

pub const ALL_BINDINGS: u32 = 0;

#[derive(Clone, Copy, Debug, Eq, Hash, Ord, PartialEq, PartialOrd)]
pub struct DenyEachBindingOnlyDenyCppRequest {
    pub a: bool,
}

impl fidl::Persistable for DenyEachBindingOnlyDenyCppRequest {}

#[derive(Clone, Copy, Debug, Eq, Hash, Ord, PartialEq, PartialOrd)]
pub struct DenyEachBindingOnlyDenyDartRequest {
    pub a: bool,
}

impl fidl::Persistable for DenyEachBindingOnlyDenyDartRequest {}

#[derive(Clone, Copy, Debug, Eq, Hash, Ord, PartialEq, PartialOrd)]
pub struct DenyEachBindingOnlyDenyGoRequest {
    pub a: bool,
}

impl fidl::Persistable for DenyEachBindingOnlyDenyGoRequest {}

#[derive(Clone, Copy, Debug, Eq, Hash, Ord, PartialEq, PartialOrd)]
pub struct DenyEachBindingOnlyDenyLibfuzzerRequest {
    pub a: bool,
}

impl fidl::Persistable for DenyEachBindingOnlyDenyLibfuzzerRequest {}

#[derive(Clone, Copy, Debug, Eq, Hash, Ord, PartialEq, PartialOrd)]
pub struct DenyEachBindingOnlyDenySyzkallerRequest {
    pub a: bool,
}

impl fidl::Persistable for DenyEachBindingOnlyDenySyzkallerRequest {}

#[derive(Clone, Copy, Debug, Eq, Hash, Ord, PartialEq, PartialOrd)]
#[repr(C)]
pub struct DenyEachBindingOnlyDenyCppResponse {
    pub b: i32,
}

impl fidl::Persistable for DenyEachBindingOnlyDenyCppResponse {}

#[derive(Clone, Copy, Debug, Eq, Hash, Ord, PartialEq, PartialOrd)]
#[repr(C)]
pub struct DenyEachBindingOnlyDenyDartResponse {
    pub b: i32,
}

impl fidl::Persistable for DenyEachBindingOnlyDenyDartResponse {}

#[derive(Clone, Copy, Debug, Eq, Hash, Ord, PartialEq, PartialOrd)]
#[repr(C)]
pub struct DenyEachBindingOnlyDenyGoResponse {
    pub b: i32,
}

impl fidl::Persistable for DenyEachBindingOnlyDenyGoResponse {}

#[derive(Clone, Copy, Debug, Eq, Hash, Ord, PartialEq, PartialOrd)]
#[repr(C)]
pub struct DenyEachBindingOnlyDenyLibfuzzerResponse {
    pub b: i32,
}

impl fidl::Persistable for DenyEachBindingOnlyDenyLibfuzzerResponse {}

#[derive(Clone, Copy, Debug, Eq, Hash, Ord, PartialEq, PartialOrd)]
#[repr(C)]
pub struct DenyEachBindingOnlyDenySyzkallerResponse {
    pub b: i32,
}

impl fidl::Persistable for DenyEachBindingOnlyDenySyzkallerResponse {}

#[derive(Clone, Copy, Debug, Eq, Hash, Ord, PartialEq, PartialOrd)]
pub struct MemberOnlyAppearsInImportingLibrary {
    pub a: bool,
}

impl fidl::Persistable for MemberOnlyAppearsInImportingLibrary {}

#[derive(Clone, Copy, Debug, Eq, Hash, Ord, PartialEq, PartialOrd)]
pub struct OnlyAppearsInImportingLibrary {
    pub member_only_appears_in_importing_library: MemberOnlyAppearsInImportingLibrary,
}

impl fidl::Persistable for OnlyAppearsInImportingLibrary {}

#[derive(Clone, Debug, Default, PartialEq)]
pub struct OnlyRust {
    #[doc(hidden)]
    pub __source_breaking: fidl::marker::SourceBreaking,
}

impl fidl::Persistable for OnlyRust {}

mod internal {
    use super::*;

    impl fidl::encoding::ValueTypeMarker for DenyEachBindingOnlyDenyCppRequest {
        type Borrowed<'a> = &'a Self;
        fn borrow(value: &<Self as fidl::encoding::TypeMarker>::Owned) -> Self::Borrowed<'_> {
            value
        }
    }

    unsafe impl fidl::encoding::TypeMarker for DenyEachBindingOnlyDenyCppRequest {
        type Owned = Self;

        #[inline(always)]
        fn inline_align(_context: fidl::encoding::Context) -> usize {
            1
        }

        #[inline(always)]
        fn inline_size(_context: fidl::encoding::Context) -> usize {
            1
        }
    }

    unsafe impl<D: fidl::encoding::ResourceDialect>
        fidl::encoding::Encode<DenyEachBindingOnlyDenyCppRequest, D>
        for &DenyEachBindingOnlyDenyCppRequest
    {
        #[inline]
        unsafe fn encode(
            self,
            encoder: &mut fidl::encoding::Encoder<'_, D>,
            offset: usize,
            _depth: fidl::encoding::Depth,
        ) -> fidl::Result<()> {
            encoder.debug_check_bounds::<DenyEachBindingOnlyDenyCppRequest>(offset);
            // Delegate to tuple encoding.
            fidl::encoding::Encode::<DenyEachBindingOnlyDenyCppRequest, D>::encode(
                (<bool as fidl::encoding::ValueTypeMarker>::borrow(&self.a),),
                encoder,
                offset,
                _depth,
            )
        }
    }
    unsafe impl<D: fidl::encoding::ResourceDialect, T0: fidl::encoding::Encode<bool, D>>
        fidl::encoding::Encode<DenyEachBindingOnlyDenyCppRequest, D> for (T0,)
    {
        #[inline]
        unsafe fn encode(
            self,
            encoder: &mut fidl::encoding::Encoder<'_, D>,
            offset: usize,
            depth: fidl::encoding::Depth,
        ) -> fidl::Result<()> {
            encoder.debug_check_bounds::<DenyEachBindingOnlyDenyCppRequest>(offset);
            // Zero out padding regions. There's no need to apply masks
            // because the unmasked parts will be overwritten by fields.
            // Write the fields.
            self.0.encode(encoder, offset + 0, depth)?;
            Ok(())
        }
    }

    impl<D: fidl::encoding::ResourceDialect> fidl::encoding::Decode<Self, D>
        for DenyEachBindingOnlyDenyCppRequest
    {
        #[inline(always)]
        fn new_empty() -> Self {
            Self { a: fidl::new_empty!(bool, D) }
        }

        #[inline]
        unsafe fn decode(
            &mut self,
            decoder: &mut fidl::encoding::Decoder<'_, D>,
            offset: usize,
            _depth: fidl::encoding::Depth,
        ) -> fidl::Result<()> {
            decoder.debug_check_bounds::<Self>(offset);
            // Verify that padding bytes are zero.
            fidl::decode!(bool, D, &mut self.a, decoder, offset + 0, _depth)?;
            Ok(())
        }
    }

    impl fidl::encoding::ValueTypeMarker for DenyEachBindingOnlyDenyDartRequest {
        type Borrowed<'a> = &'a Self;
        fn borrow(value: &<Self as fidl::encoding::TypeMarker>::Owned) -> Self::Borrowed<'_> {
            value
        }
    }

    unsafe impl fidl::encoding::TypeMarker for DenyEachBindingOnlyDenyDartRequest {
        type Owned = Self;

        #[inline(always)]
        fn inline_align(_context: fidl::encoding::Context) -> usize {
            1
        }

        #[inline(always)]
        fn inline_size(_context: fidl::encoding::Context) -> usize {
            1
        }
    }

    unsafe impl<D: fidl::encoding::ResourceDialect>
        fidl::encoding::Encode<DenyEachBindingOnlyDenyDartRequest, D>
        for &DenyEachBindingOnlyDenyDartRequest
    {
        #[inline]
        unsafe fn encode(
            self,
            encoder: &mut fidl::encoding::Encoder<'_, D>,
            offset: usize,
            _depth: fidl::encoding::Depth,
        ) -> fidl::Result<()> {
            encoder.debug_check_bounds::<DenyEachBindingOnlyDenyDartRequest>(offset);
            // Delegate to tuple encoding.
            fidl::encoding::Encode::<DenyEachBindingOnlyDenyDartRequest, D>::encode(
                (<bool as fidl::encoding::ValueTypeMarker>::borrow(&self.a),),
                encoder,
                offset,
                _depth,
            )
        }
    }
    unsafe impl<D: fidl::encoding::ResourceDialect, T0: fidl::encoding::Encode<bool, D>>
        fidl::encoding::Encode<DenyEachBindingOnlyDenyDartRequest, D> for (T0,)
    {
        #[inline]
        unsafe fn encode(
            self,
            encoder: &mut fidl::encoding::Encoder<'_, D>,
            offset: usize,
            depth: fidl::encoding::Depth,
        ) -> fidl::Result<()> {
            encoder.debug_check_bounds::<DenyEachBindingOnlyDenyDartRequest>(offset);
            // Zero out padding regions. There's no need to apply masks
            // because the unmasked parts will be overwritten by fields.
            // Write the fields.
            self.0.encode(encoder, offset + 0, depth)?;
            Ok(())
        }
    }

    impl<D: fidl::encoding::ResourceDialect> fidl::encoding::Decode<Self, D>
        for DenyEachBindingOnlyDenyDartRequest
    {
        #[inline(always)]
        fn new_empty() -> Self {
            Self { a: fidl::new_empty!(bool, D) }
        }

        #[inline]
        unsafe fn decode(
            &mut self,
            decoder: &mut fidl::encoding::Decoder<'_, D>,
            offset: usize,
            _depth: fidl::encoding::Depth,
        ) -> fidl::Result<()> {
            decoder.debug_check_bounds::<Self>(offset);
            // Verify that padding bytes are zero.
            fidl::decode!(bool, D, &mut self.a, decoder, offset + 0, _depth)?;
            Ok(())
        }
    }

    impl fidl::encoding::ValueTypeMarker for DenyEachBindingOnlyDenyGoRequest {
        type Borrowed<'a> = &'a Self;
        fn borrow(value: &<Self as fidl::encoding::TypeMarker>::Owned) -> Self::Borrowed<'_> {
            value
        }
    }

    unsafe impl fidl::encoding::TypeMarker for DenyEachBindingOnlyDenyGoRequest {
        type Owned = Self;

        #[inline(always)]
        fn inline_align(_context: fidl::encoding::Context) -> usize {
            1
        }

        #[inline(always)]
        fn inline_size(_context: fidl::encoding::Context) -> usize {
            1
        }
    }

    unsafe impl<D: fidl::encoding::ResourceDialect>
        fidl::encoding::Encode<DenyEachBindingOnlyDenyGoRequest, D>
        for &DenyEachBindingOnlyDenyGoRequest
    {
        #[inline]
        unsafe fn encode(
            self,
            encoder: &mut fidl::encoding::Encoder<'_, D>,
            offset: usize,
            _depth: fidl::encoding::Depth,
        ) -> fidl::Result<()> {
            encoder.debug_check_bounds::<DenyEachBindingOnlyDenyGoRequest>(offset);
            // Delegate to tuple encoding.
            fidl::encoding::Encode::<DenyEachBindingOnlyDenyGoRequest, D>::encode(
                (<bool as fidl::encoding::ValueTypeMarker>::borrow(&self.a),),
                encoder,
                offset,
                _depth,
            )
        }
    }
    unsafe impl<D: fidl::encoding::ResourceDialect, T0: fidl::encoding::Encode<bool, D>>
        fidl::encoding::Encode<DenyEachBindingOnlyDenyGoRequest, D> for (T0,)
    {
        #[inline]
        unsafe fn encode(
            self,
            encoder: &mut fidl::encoding::Encoder<'_, D>,
            offset: usize,
            depth: fidl::encoding::Depth,
        ) -> fidl::Result<()> {
            encoder.debug_check_bounds::<DenyEachBindingOnlyDenyGoRequest>(offset);
            // Zero out padding regions. There's no need to apply masks
            // because the unmasked parts will be overwritten by fields.
            // Write the fields.
            self.0.encode(encoder, offset + 0, depth)?;
            Ok(())
        }
    }

    impl<D: fidl::encoding::ResourceDialect> fidl::encoding::Decode<Self, D>
        for DenyEachBindingOnlyDenyGoRequest
    {
        #[inline(always)]
        fn new_empty() -> Self {
            Self { a: fidl::new_empty!(bool, D) }
        }

        #[inline]
        unsafe fn decode(
            &mut self,
            decoder: &mut fidl::encoding::Decoder<'_, D>,
            offset: usize,
            _depth: fidl::encoding::Depth,
        ) -> fidl::Result<()> {
            decoder.debug_check_bounds::<Self>(offset);
            // Verify that padding bytes are zero.
            fidl::decode!(bool, D, &mut self.a, decoder, offset + 0, _depth)?;
            Ok(())
        }
    }

    impl fidl::encoding::ValueTypeMarker for DenyEachBindingOnlyDenyLibfuzzerRequest {
        type Borrowed<'a> = &'a Self;
        fn borrow(value: &<Self as fidl::encoding::TypeMarker>::Owned) -> Self::Borrowed<'_> {
            value
        }
    }

    unsafe impl fidl::encoding::TypeMarker for DenyEachBindingOnlyDenyLibfuzzerRequest {
        type Owned = Self;

        #[inline(always)]
        fn inline_align(_context: fidl::encoding::Context) -> usize {
            1
        }

        #[inline(always)]
        fn inline_size(_context: fidl::encoding::Context) -> usize {
            1
        }
    }

    unsafe impl<D: fidl::encoding::ResourceDialect>
        fidl::encoding::Encode<DenyEachBindingOnlyDenyLibfuzzerRequest, D>
        for &DenyEachBindingOnlyDenyLibfuzzerRequest
    {
        #[inline]
        unsafe fn encode(
            self,
            encoder: &mut fidl::encoding::Encoder<'_, D>,
            offset: usize,
            _depth: fidl::encoding::Depth,
        ) -> fidl::Result<()> {
            encoder.debug_check_bounds::<DenyEachBindingOnlyDenyLibfuzzerRequest>(offset);
            // Delegate to tuple encoding.
            fidl::encoding::Encode::<DenyEachBindingOnlyDenyLibfuzzerRequest, D>::encode(
                (<bool as fidl::encoding::ValueTypeMarker>::borrow(&self.a),),
                encoder,
                offset,
                _depth,
            )
        }
    }
    unsafe impl<D: fidl::encoding::ResourceDialect, T0: fidl::encoding::Encode<bool, D>>
        fidl::encoding::Encode<DenyEachBindingOnlyDenyLibfuzzerRequest, D> for (T0,)
    {
        #[inline]
        unsafe fn encode(
            self,
            encoder: &mut fidl::encoding::Encoder<'_, D>,
            offset: usize,
            depth: fidl::encoding::Depth,
        ) -> fidl::Result<()> {
            encoder.debug_check_bounds::<DenyEachBindingOnlyDenyLibfuzzerRequest>(offset);
            // Zero out padding regions. There's no need to apply masks
            // because the unmasked parts will be overwritten by fields.
            // Write the fields.
            self.0.encode(encoder, offset + 0, depth)?;
            Ok(())
        }
    }

    impl<D: fidl::encoding::ResourceDialect> fidl::encoding::Decode<Self, D>
        for DenyEachBindingOnlyDenyLibfuzzerRequest
    {
        #[inline(always)]
        fn new_empty() -> Self {
            Self { a: fidl::new_empty!(bool, D) }
        }

        #[inline]
        unsafe fn decode(
            &mut self,
            decoder: &mut fidl::encoding::Decoder<'_, D>,
            offset: usize,
            _depth: fidl::encoding::Depth,
        ) -> fidl::Result<()> {
            decoder.debug_check_bounds::<Self>(offset);
            // Verify that padding bytes are zero.
            fidl::decode!(bool, D, &mut self.a, decoder, offset + 0, _depth)?;
            Ok(())
        }
    }

    impl fidl::encoding::ValueTypeMarker for DenyEachBindingOnlyDenySyzkallerRequest {
        type Borrowed<'a> = &'a Self;
        fn borrow(value: &<Self as fidl::encoding::TypeMarker>::Owned) -> Self::Borrowed<'_> {
            value
        }
    }

    unsafe impl fidl::encoding::TypeMarker for DenyEachBindingOnlyDenySyzkallerRequest {
        type Owned = Self;

        #[inline(always)]
        fn inline_align(_context: fidl::encoding::Context) -> usize {
            1
        }

        #[inline(always)]
        fn inline_size(_context: fidl::encoding::Context) -> usize {
            1
        }
    }

    unsafe impl<D: fidl::encoding::ResourceDialect>
        fidl::encoding::Encode<DenyEachBindingOnlyDenySyzkallerRequest, D>
        for &DenyEachBindingOnlyDenySyzkallerRequest
    {
        #[inline]
        unsafe fn encode(
            self,
            encoder: &mut fidl::encoding::Encoder<'_, D>,
            offset: usize,
            _depth: fidl::encoding::Depth,
        ) -> fidl::Result<()> {
            encoder.debug_check_bounds::<DenyEachBindingOnlyDenySyzkallerRequest>(offset);
            // Delegate to tuple encoding.
            fidl::encoding::Encode::<DenyEachBindingOnlyDenySyzkallerRequest, D>::encode(
                (<bool as fidl::encoding::ValueTypeMarker>::borrow(&self.a),),
                encoder,
                offset,
                _depth,
            )
        }
    }
    unsafe impl<D: fidl::encoding::ResourceDialect, T0: fidl::encoding::Encode<bool, D>>
        fidl::encoding::Encode<DenyEachBindingOnlyDenySyzkallerRequest, D> for (T0,)
    {
        #[inline]
        unsafe fn encode(
            self,
            encoder: &mut fidl::encoding::Encoder<'_, D>,
            offset: usize,
            depth: fidl::encoding::Depth,
        ) -> fidl::Result<()> {
            encoder.debug_check_bounds::<DenyEachBindingOnlyDenySyzkallerRequest>(offset);
            // Zero out padding regions. There's no need to apply masks
            // because the unmasked parts will be overwritten by fields.
            // Write the fields.
            self.0.encode(encoder, offset + 0, depth)?;
            Ok(())
        }
    }

    impl<D: fidl::encoding::ResourceDialect> fidl::encoding::Decode<Self, D>
        for DenyEachBindingOnlyDenySyzkallerRequest
    {
        #[inline(always)]
        fn new_empty() -> Self {
            Self { a: fidl::new_empty!(bool, D) }
        }

        #[inline]
        unsafe fn decode(
            &mut self,
            decoder: &mut fidl::encoding::Decoder<'_, D>,
            offset: usize,
            _depth: fidl::encoding::Depth,
        ) -> fidl::Result<()> {
            decoder.debug_check_bounds::<Self>(offset);
            // Verify that padding bytes are zero.
            fidl::decode!(bool, D, &mut self.a, decoder, offset + 0, _depth)?;
            Ok(())
        }
    }

    impl fidl::encoding::ValueTypeMarker for DenyEachBindingOnlyDenyCppResponse {
        type Borrowed<'a> = &'a Self;
        fn borrow(value: &<Self as fidl::encoding::TypeMarker>::Owned) -> Self::Borrowed<'_> {
            value
        }
    }

    unsafe impl fidl::encoding::TypeMarker for DenyEachBindingOnlyDenyCppResponse {
        type Owned = Self;

        #[inline(always)]
        fn inline_align(_context: fidl::encoding::Context) -> usize {
            4
        }

        #[inline(always)]
        fn inline_size(_context: fidl::encoding::Context) -> usize {
            4
        }
        #[inline(always)]
        fn encode_is_copy() -> bool {
            true
        }

        #[inline(always)]
        fn decode_is_copy() -> bool {
            true
        }
    }

    unsafe impl<D: fidl::encoding::ResourceDialect>
        fidl::encoding::Encode<DenyEachBindingOnlyDenyCppResponse, D>
        for &DenyEachBindingOnlyDenyCppResponse
    {
        #[inline]
        unsafe fn encode(
            self,
            encoder: &mut fidl::encoding::Encoder<'_, D>,
            offset: usize,
            _depth: fidl::encoding::Depth,
        ) -> fidl::Result<()> {
            encoder.debug_check_bounds::<DenyEachBindingOnlyDenyCppResponse>(offset);
            unsafe {
                // Copy the object into the buffer.
                let buf_ptr = encoder.buf.as_mut_ptr().add(offset);
                (buf_ptr as *mut DenyEachBindingOnlyDenyCppResponse)
                    .write_unaligned((self as *const DenyEachBindingOnlyDenyCppResponse).read());
                // Zero out padding regions. Unlike `fidl_struct_impl_noncopy!`, this must be
                // done second because the memcpy will write garbage to these bytes.
            }
            Ok(())
        }
    }
    unsafe impl<D: fidl::encoding::ResourceDialect, T0: fidl::encoding::Encode<i32, D>>
        fidl::encoding::Encode<DenyEachBindingOnlyDenyCppResponse, D> for (T0,)
    {
        #[inline]
        unsafe fn encode(
            self,
            encoder: &mut fidl::encoding::Encoder<'_, D>,
            offset: usize,
            depth: fidl::encoding::Depth,
        ) -> fidl::Result<()> {
            encoder.debug_check_bounds::<DenyEachBindingOnlyDenyCppResponse>(offset);
            // Zero out padding regions. There's no need to apply masks
            // because the unmasked parts will be overwritten by fields.
            // Write the fields.
            self.0.encode(encoder, offset + 0, depth)?;
            Ok(())
        }
    }

    impl<D: fidl::encoding::ResourceDialect> fidl::encoding::Decode<Self, D>
        for DenyEachBindingOnlyDenyCppResponse
    {
        #[inline(always)]
        fn new_empty() -> Self {
            Self { b: fidl::new_empty!(i32, D) }
        }

        #[inline]
        unsafe fn decode(
            &mut self,
            decoder: &mut fidl::encoding::Decoder<'_, D>,
            offset: usize,
            _depth: fidl::encoding::Depth,
        ) -> fidl::Result<()> {
            decoder.debug_check_bounds::<Self>(offset);
            let buf_ptr = unsafe { decoder.buf.as_ptr().add(offset) };
            // Verify that padding bytes are zero.
            // Copy from the buffer into the object.
            unsafe {
                std::ptr::copy_nonoverlapping(buf_ptr, self as *mut Self as *mut u8, 4);
            }
            Ok(())
        }
    }

    impl fidl::encoding::ValueTypeMarker for DenyEachBindingOnlyDenyDartResponse {
        type Borrowed<'a> = &'a Self;
        fn borrow(value: &<Self as fidl::encoding::TypeMarker>::Owned) -> Self::Borrowed<'_> {
            value
        }
    }

    unsafe impl fidl::encoding::TypeMarker for DenyEachBindingOnlyDenyDartResponse {
        type Owned = Self;

        #[inline(always)]
        fn inline_align(_context: fidl::encoding::Context) -> usize {
            4
        }

        #[inline(always)]
        fn inline_size(_context: fidl::encoding::Context) -> usize {
            4
        }
        #[inline(always)]
        fn encode_is_copy() -> bool {
            true
        }

        #[inline(always)]
        fn decode_is_copy() -> bool {
            true
        }
    }

    unsafe impl<D: fidl::encoding::ResourceDialect>
        fidl::encoding::Encode<DenyEachBindingOnlyDenyDartResponse, D>
        for &DenyEachBindingOnlyDenyDartResponse
    {
        #[inline]
        unsafe fn encode(
            self,
            encoder: &mut fidl::encoding::Encoder<'_, D>,
            offset: usize,
            _depth: fidl::encoding::Depth,
        ) -> fidl::Result<()> {
            encoder.debug_check_bounds::<DenyEachBindingOnlyDenyDartResponse>(offset);
            unsafe {
                // Copy the object into the buffer.
                let buf_ptr = encoder.buf.as_mut_ptr().add(offset);
                (buf_ptr as *mut DenyEachBindingOnlyDenyDartResponse)
                    .write_unaligned((self as *const DenyEachBindingOnlyDenyDartResponse).read());
                // Zero out padding regions. Unlike `fidl_struct_impl_noncopy!`, this must be
                // done second because the memcpy will write garbage to these bytes.
            }
            Ok(())
        }
    }
    unsafe impl<D: fidl::encoding::ResourceDialect, T0: fidl::encoding::Encode<i32, D>>
        fidl::encoding::Encode<DenyEachBindingOnlyDenyDartResponse, D> for (T0,)
    {
        #[inline]
        unsafe fn encode(
            self,
            encoder: &mut fidl::encoding::Encoder<'_, D>,
            offset: usize,
            depth: fidl::encoding::Depth,
        ) -> fidl::Result<()> {
            encoder.debug_check_bounds::<DenyEachBindingOnlyDenyDartResponse>(offset);
            // Zero out padding regions. There's no need to apply masks
            // because the unmasked parts will be overwritten by fields.
            // Write the fields.
            self.0.encode(encoder, offset + 0, depth)?;
            Ok(())
        }
    }

    impl<D: fidl::encoding::ResourceDialect> fidl::encoding::Decode<Self, D>
        for DenyEachBindingOnlyDenyDartResponse
    {
        #[inline(always)]
        fn new_empty() -> Self {
            Self { b: fidl::new_empty!(i32, D) }
        }

        #[inline]
        unsafe fn decode(
            &mut self,
            decoder: &mut fidl::encoding::Decoder<'_, D>,
            offset: usize,
            _depth: fidl::encoding::Depth,
        ) -> fidl::Result<()> {
            decoder.debug_check_bounds::<Self>(offset);
            let buf_ptr = unsafe { decoder.buf.as_ptr().add(offset) };
            // Verify that padding bytes are zero.
            // Copy from the buffer into the object.
            unsafe {
                std::ptr::copy_nonoverlapping(buf_ptr, self as *mut Self as *mut u8, 4);
            }
            Ok(())
        }
    }

    impl fidl::encoding::ValueTypeMarker for DenyEachBindingOnlyDenyGoResponse {
        type Borrowed<'a> = &'a Self;
        fn borrow(value: &<Self as fidl::encoding::TypeMarker>::Owned) -> Self::Borrowed<'_> {
            value
        }
    }

    unsafe impl fidl::encoding::TypeMarker for DenyEachBindingOnlyDenyGoResponse {
        type Owned = Self;

        #[inline(always)]
        fn inline_align(_context: fidl::encoding::Context) -> usize {
            4
        }

        #[inline(always)]
        fn inline_size(_context: fidl::encoding::Context) -> usize {
            4
        }
        #[inline(always)]
        fn encode_is_copy() -> bool {
            true
        }

        #[inline(always)]
        fn decode_is_copy() -> bool {
            true
        }
    }

    unsafe impl<D: fidl::encoding::ResourceDialect>
        fidl::encoding::Encode<DenyEachBindingOnlyDenyGoResponse, D>
        for &DenyEachBindingOnlyDenyGoResponse
    {
        #[inline]
        unsafe fn encode(
            self,
            encoder: &mut fidl::encoding::Encoder<'_, D>,
            offset: usize,
            _depth: fidl::encoding::Depth,
        ) -> fidl::Result<()> {
            encoder.debug_check_bounds::<DenyEachBindingOnlyDenyGoResponse>(offset);
            unsafe {
                // Copy the object into the buffer.
                let buf_ptr = encoder.buf.as_mut_ptr().add(offset);
                (buf_ptr as *mut DenyEachBindingOnlyDenyGoResponse)
                    .write_unaligned((self as *const DenyEachBindingOnlyDenyGoResponse).read());
                // Zero out padding regions. Unlike `fidl_struct_impl_noncopy!`, this must be
                // done second because the memcpy will write garbage to these bytes.
            }
            Ok(())
        }
    }
    unsafe impl<D: fidl::encoding::ResourceDialect, T0: fidl::encoding::Encode<i32, D>>
        fidl::encoding::Encode<DenyEachBindingOnlyDenyGoResponse, D> for (T0,)
    {
        #[inline]
        unsafe fn encode(
            self,
            encoder: &mut fidl::encoding::Encoder<'_, D>,
            offset: usize,
            depth: fidl::encoding::Depth,
        ) -> fidl::Result<()> {
            encoder.debug_check_bounds::<DenyEachBindingOnlyDenyGoResponse>(offset);
            // Zero out padding regions. There's no need to apply masks
            // because the unmasked parts will be overwritten by fields.
            // Write the fields.
            self.0.encode(encoder, offset + 0, depth)?;
            Ok(())
        }
    }

    impl<D: fidl::encoding::ResourceDialect> fidl::encoding::Decode<Self, D>
        for DenyEachBindingOnlyDenyGoResponse
    {
        #[inline(always)]
        fn new_empty() -> Self {
            Self { b: fidl::new_empty!(i32, D) }
        }

        #[inline]
        unsafe fn decode(
            &mut self,
            decoder: &mut fidl::encoding::Decoder<'_, D>,
            offset: usize,
            _depth: fidl::encoding::Depth,
        ) -> fidl::Result<()> {
            decoder.debug_check_bounds::<Self>(offset);
            let buf_ptr = unsafe { decoder.buf.as_ptr().add(offset) };
            // Verify that padding bytes are zero.
            // Copy from the buffer into the object.
            unsafe {
                std::ptr::copy_nonoverlapping(buf_ptr, self as *mut Self as *mut u8, 4);
            }
            Ok(())
        }
    }

    impl fidl::encoding::ValueTypeMarker for DenyEachBindingOnlyDenyLibfuzzerResponse {
        type Borrowed<'a> = &'a Self;
        fn borrow(value: &<Self as fidl::encoding::TypeMarker>::Owned) -> Self::Borrowed<'_> {
            value
        }
    }

    unsafe impl fidl::encoding::TypeMarker for DenyEachBindingOnlyDenyLibfuzzerResponse {
        type Owned = Self;

        #[inline(always)]
        fn inline_align(_context: fidl::encoding::Context) -> usize {
            4
        }

        #[inline(always)]
        fn inline_size(_context: fidl::encoding::Context) -> usize {
            4
        }
        #[inline(always)]
        fn encode_is_copy() -> bool {
            true
        }

        #[inline(always)]
        fn decode_is_copy() -> bool {
            true
        }
    }

    unsafe impl<D: fidl::encoding::ResourceDialect>
        fidl::encoding::Encode<DenyEachBindingOnlyDenyLibfuzzerResponse, D>
        for &DenyEachBindingOnlyDenyLibfuzzerResponse
    {
        #[inline]
        unsafe fn encode(
            self,
            encoder: &mut fidl::encoding::Encoder<'_, D>,
            offset: usize,
            _depth: fidl::encoding::Depth,
        ) -> fidl::Result<()> {
            encoder.debug_check_bounds::<DenyEachBindingOnlyDenyLibfuzzerResponse>(offset);
            unsafe {
                // Copy the object into the buffer.
                let buf_ptr = encoder.buf.as_mut_ptr().add(offset);
                (buf_ptr as *mut DenyEachBindingOnlyDenyLibfuzzerResponse).write_unaligned(
                    (self as *const DenyEachBindingOnlyDenyLibfuzzerResponse).read(),
                );
                // Zero out padding regions. Unlike `fidl_struct_impl_noncopy!`, this must be
                // done second because the memcpy will write garbage to these bytes.
            }
            Ok(())
        }
    }
    unsafe impl<D: fidl::encoding::ResourceDialect, T0: fidl::encoding::Encode<i32, D>>
        fidl::encoding::Encode<DenyEachBindingOnlyDenyLibfuzzerResponse, D> for (T0,)
    {
        #[inline]
        unsafe fn encode(
            self,
            encoder: &mut fidl::encoding::Encoder<'_, D>,
            offset: usize,
            depth: fidl::encoding::Depth,
        ) -> fidl::Result<()> {
            encoder.debug_check_bounds::<DenyEachBindingOnlyDenyLibfuzzerResponse>(offset);
            // Zero out padding regions. There's no need to apply masks
            // because the unmasked parts will be overwritten by fields.
            // Write the fields.
            self.0.encode(encoder, offset + 0, depth)?;
            Ok(())
        }
    }

    impl<D: fidl::encoding::ResourceDialect> fidl::encoding::Decode<Self, D>
        for DenyEachBindingOnlyDenyLibfuzzerResponse
    {
        #[inline(always)]
        fn new_empty() -> Self {
            Self { b: fidl::new_empty!(i32, D) }
        }

        #[inline]
        unsafe fn decode(
            &mut self,
            decoder: &mut fidl::encoding::Decoder<'_, D>,
            offset: usize,
            _depth: fidl::encoding::Depth,
        ) -> fidl::Result<()> {
            decoder.debug_check_bounds::<Self>(offset);
            let buf_ptr = unsafe { decoder.buf.as_ptr().add(offset) };
            // Verify that padding bytes are zero.
            // Copy from the buffer into the object.
            unsafe {
                std::ptr::copy_nonoverlapping(buf_ptr, self as *mut Self as *mut u8, 4);
            }
            Ok(())
        }
    }

    impl fidl::encoding::ValueTypeMarker for DenyEachBindingOnlyDenySyzkallerResponse {
        type Borrowed<'a> = &'a Self;
        fn borrow(value: &<Self as fidl::encoding::TypeMarker>::Owned) -> Self::Borrowed<'_> {
            value
        }
    }

    unsafe impl fidl::encoding::TypeMarker for DenyEachBindingOnlyDenySyzkallerResponse {
        type Owned = Self;

        #[inline(always)]
        fn inline_align(_context: fidl::encoding::Context) -> usize {
            4
        }

        #[inline(always)]
        fn inline_size(_context: fidl::encoding::Context) -> usize {
            4
        }
        #[inline(always)]
        fn encode_is_copy() -> bool {
            true
        }

        #[inline(always)]
        fn decode_is_copy() -> bool {
            true
        }
    }

    unsafe impl<D: fidl::encoding::ResourceDialect>
        fidl::encoding::Encode<DenyEachBindingOnlyDenySyzkallerResponse, D>
        for &DenyEachBindingOnlyDenySyzkallerResponse
    {
        #[inline]
        unsafe fn encode(
            self,
            encoder: &mut fidl::encoding::Encoder<'_, D>,
            offset: usize,
            _depth: fidl::encoding::Depth,
        ) -> fidl::Result<()> {
            encoder.debug_check_bounds::<DenyEachBindingOnlyDenySyzkallerResponse>(offset);
            unsafe {
                // Copy the object into the buffer.
                let buf_ptr = encoder.buf.as_mut_ptr().add(offset);
                (buf_ptr as *mut DenyEachBindingOnlyDenySyzkallerResponse).write_unaligned(
                    (self as *const DenyEachBindingOnlyDenySyzkallerResponse).read(),
                );
                // Zero out padding regions. Unlike `fidl_struct_impl_noncopy!`, this must be
                // done second because the memcpy will write garbage to these bytes.
            }
            Ok(())
        }
    }
    unsafe impl<D: fidl::encoding::ResourceDialect, T0: fidl::encoding::Encode<i32, D>>
        fidl::encoding::Encode<DenyEachBindingOnlyDenySyzkallerResponse, D> for (T0,)
    {
        #[inline]
        unsafe fn encode(
            self,
            encoder: &mut fidl::encoding::Encoder<'_, D>,
            offset: usize,
            depth: fidl::encoding::Depth,
        ) -> fidl::Result<()> {
            encoder.debug_check_bounds::<DenyEachBindingOnlyDenySyzkallerResponse>(offset);
            // Zero out padding regions. There's no need to apply masks
            // because the unmasked parts will be overwritten by fields.
            // Write the fields.
            self.0.encode(encoder, offset + 0, depth)?;
            Ok(())
        }
    }

    impl<D: fidl::encoding::ResourceDialect> fidl::encoding::Decode<Self, D>
        for DenyEachBindingOnlyDenySyzkallerResponse
    {
        #[inline(always)]
        fn new_empty() -> Self {
            Self { b: fidl::new_empty!(i32, D) }
        }

        #[inline]
        unsafe fn decode(
            &mut self,
            decoder: &mut fidl::encoding::Decoder<'_, D>,
            offset: usize,
            _depth: fidl::encoding::Depth,
        ) -> fidl::Result<()> {
            decoder.debug_check_bounds::<Self>(offset);
            let buf_ptr = unsafe { decoder.buf.as_ptr().add(offset) };
            // Verify that padding bytes are zero.
            // Copy from the buffer into the object.
            unsafe {
                std::ptr::copy_nonoverlapping(buf_ptr, self as *mut Self as *mut u8, 4);
            }
            Ok(())
        }
    }

    impl fidl::encoding::ValueTypeMarker for MemberOnlyAppearsInImportingLibrary {
        type Borrowed<'a> = &'a Self;
        fn borrow(value: &<Self as fidl::encoding::TypeMarker>::Owned) -> Self::Borrowed<'_> {
            value
        }
    }

    unsafe impl fidl::encoding::TypeMarker for MemberOnlyAppearsInImportingLibrary {
        type Owned = Self;

        #[inline(always)]
        fn inline_align(_context: fidl::encoding::Context) -> usize {
            1
        }

        #[inline(always)]
        fn inline_size(_context: fidl::encoding::Context) -> usize {
            1
        }
    }

    unsafe impl<D: fidl::encoding::ResourceDialect>
        fidl::encoding::Encode<MemberOnlyAppearsInImportingLibrary, D>
        for &MemberOnlyAppearsInImportingLibrary
    {
        #[inline]
        unsafe fn encode(
            self,
            encoder: &mut fidl::encoding::Encoder<'_, D>,
            offset: usize,
            _depth: fidl::encoding::Depth,
        ) -> fidl::Result<()> {
            encoder.debug_check_bounds::<MemberOnlyAppearsInImportingLibrary>(offset);
            // Delegate to tuple encoding.
            fidl::encoding::Encode::<MemberOnlyAppearsInImportingLibrary, D>::encode(
                (<bool as fidl::encoding::ValueTypeMarker>::borrow(&self.a),),
                encoder,
                offset,
                _depth,
            )
        }
    }
    unsafe impl<D: fidl::encoding::ResourceDialect, T0: fidl::encoding::Encode<bool, D>>
        fidl::encoding::Encode<MemberOnlyAppearsInImportingLibrary, D> for (T0,)
    {
        #[inline]
        unsafe fn encode(
            self,
            encoder: &mut fidl::encoding::Encoder<'_, D>,
            offset: usize,
            depth: fidl::encoding::Depth,
        ) -> fidl::Result<()> {
            encoder.debug_check_bounds::<MemberOnlyAppearsInImportingLibrary>(offset);
            // Zero out padding regions. There's no need to apply masks
            // because the unmasked parts will be overwritten by fields.
            // Write the fields.
            self.0.encode(encoder, offset + 0, depth)?;
            Ok(())
        }
    }

    impl<D: fidl::encoding::ResourceDialect> fidl::encoding::Decode<Self, D>
        for MemberOnlyAppearsInImportingLibrary
    {
        #[inline(always)]
        fn new_empty() -> Self {
            Self { a: fidl::new_empty!(bool, D) }
        }

        #[inline]
        unsafe fn decode(
            &mut self,
            decoder: &mut fidl::encoding::Decoder<'_, D>,
            offset: usize,
            _depth: fidl::encoding::Depth,
        ) -> fidl::Result<()> {
            decoder.debug_check_bounds::<Self>(offset);
            // Verify that padding bytes are zero.
            fidl::decode!(bool, D, &mut self.a, decoder, offset + 0, _depth)?;
            Ok(())
        }
    }

    impl fidl::encoding::ValueTypeMarker for OnlyAppearsInImportingLibrary {
        type Borrowed<'a> = &'a Self;
        fn borrow(value: &<Self as fidl::encoding::TypeMarker>::Owned) -> Self::Borrowed<'_> {
            value
        }
    }

    unsafe impl fidl::encoding::TypeMarker for OnlyAppearsInImportingLibrary {
        type Owned = Self;

        #[inline(always)]
        fn inline_align(_context: fidl::encoding::Context) -> usize {
            1
        }

        #[inline(always)]
        fn inline_size(_context: fidl::encoding::Context) -> usize {
            1
        }
    }

    unsafe impl<D: fidl::encoding::ResourceDialect>
        fidl::encoding::Encode<OnlyAppearsInImportingLibrary, D>
        for &OnlyAppearsInImportingLibrary
    {
        #[inline]
        unsafe fn encode(
            self,
            encoder: &mut fidl::encoding::Encoder<'_, D>,
            offset: usize,
            _depth: fidl::encoding::Depth,
        ) -> fidl::Result<()> {
            encoder.debug_check_bounds::<OnlyAppearsInImportingLibrary>(offset);
            // Delegate to tuple encoding.
            fidl::encoding::Encode::<OnlyAppearsInImportingLibrary, D>::encode(
                (<MemberOnlyAppearsInImportingLibrary as fidl::encoding::ValueTypeMarker>::borrow(
                    &self.member_only_appears_in_importing_library,
                ),),
                encoder,
                offset,
                _depth,
            )
        }
    }
    unsafe impl<
            D: fidl::encoding::ResourceDialect,
            T0: fidl::encoding::Encode<MemberOnlyAppearsInImportingLibrary, D>,
        > fidl::encoding::Encode<OnlyAppearsInImportingLibrary, D> for (T0,)
    {
        #[inline]
        unsafe fn encode(
            self,
            encoder: &mut fidl::encoding::Encoder<'_, D>,
            offset: usize,
            depth: fidl::encoding::Depth,
        ) -> fidl::Result<()> {
            encoder.debug_check_bounds::<OnlyAppearsInImportingLibrary>(offset);
            // Zero out padding regions. There's no need to apply masks
            // because the unmasked parts will be overwritten by fields.
            // Write the fields.
            self.0.encode(encoder, offset + 0, depth)?;
            Ok(())
        }
    }

    impl<D: fidl::encoding::ResourceDialect> fidl::encoding::Decode<Self, D>
        for OnlyAppearsInImportingLibrary
    {
        #[inline(always)]
        fn new_empty() -> Self {
            Self {
                member_only_appears_in_importing_library: fidl::new_empty!(
                    MemberOnlyAppearsInImportingLibrary,
                    D
                ),
            }
        }

        #[inline]
        unsafe fn decode(
            &mut self,
            decoder: &mut fidl::encoding::Decoder<'_, D>,
            offset: usize,
            _depth: fidl::encoding::Depth,
        ) -> fidl::Result<()> {
            decoder.debug_check_bounds::<Self>(offset);
            // Verify that padding bytes are zero.
            fidl::decode!(
                MemberOnlyAppearsInImportingLibrary,
                D,
                &mut self.member_only_appears_in_importing_library,
                decoder,
                offset + 0,
                _depth
            )?;
            Ok(())
        }
    }

    impl OnlyRust {
        #[inline(always)]
        fn max_ordinal_present(&self) -> u64 {
            0
        }
    }

    impl fidl::encoding::ValueTypeMarker for OnlyRust {
        type Borrowed<'a> = &'a Self;
        fn borrow(value: &<Self as fidl::encoding::TypeMarker>::Owned) -> Self::Borrowed<'_> {
            value
        }
    }

    unsafe impl fidl::encoding::TypeMarker for OnlyRust {
        type Owned = Self;

        #[inline(always)]
        fn inline_align(_context: fidl::encoding::Context) -> usize {
            8
        }

        #[inline(always)]
        fn inline_size(_context: fidl::encoding::Context) -> usize {
            16
        }
    }

    unsafe impl<D: fidl::encoding::ResourceDialect> fidl::encoding::Encode<OnlyRust, D> for &OnlyRust {
        unsafe fn encode(
            self,
            encoder: &mut fidl::encoding::Encoder<'_, D>,
            offset: usize,
            mut depth: fidl::encoding::Depth,
        ) -> fidl::Result<()> {
            encoder.debug_check_bounds::<OnlyRust>(offset);
            // Vector header
            let max_ordinal: u64 = self.max_ordinal_present();
            encoder.write_num(max_ordinal, offset);
            encoder.write_num(fidl::encoding::ALLOC_PRESENT_U64, offset + 8);
            // Calling encoder.out_of_line_offset(0) is not allowed.
            if max_ordinal == 0 {
                return Ok(());
            }
            depth.increment()?;
            let envelope_size = 8;
            let bytes_len = max_ordinal as usize * envelope_size;
            #[allow(unused_variables)]
            let offset = encoder.out_of_line_offset(bytes_len);
            let mut _prev_end_offset: usize = 0;

            Ok(())
        }
    }

    impl<D: fidl::encoding::ResourceDialect> fidl::encoding::Decode<Self, D> for OnlyRust {
        #[inline(always)]
        fn new_empty() -> Self {
            Self::default()
        }

        unsafe fn decode(
            &mut self,
            decoder: &mut fidl::encoding::Decoder<'_, D>,
            offset: usize,
            mut depth: fidl::encoding::Depth,
        ) -> fidl::Result<()> {
            decoder.debug_check_bounds::<Self>(offset);
            let len = match fidl::encoding::decode_vector_header(decoder, offset)? {
                None => return Err(fidl::Error::NotNullable),
                Some(len) => len,
            };
            // Calling decoder.out_of_line_offset(0) is not allowed.
            if len == 0 {
                return Ok(());
            };
            depth.increment()?;
            let envelope_size = 8;
            let bytes_len = len * envelope_size;
            let offset = decoder.out_of_line_offset(bytes_len)?;
            // Decode the envelope for each type.
            let mut _next_ordinal_to_read = 0;
            let mut next_offset = offset;
            let end_offset = offset + bytes_len;

            // Decode the remaining unknown envelopes.
            while next_offset < end_offset {
                _next_ordinal_to_read += 1;
                fidl::encoding::decode_unknown_envelope(decoder, next_offset, depth)?;
                next_offset += envelope_size;
            }

            Ok(())
        }
    }
}
